{
  "policy": null,
  "log": {
    "access": "",
    "error": "",
    "loglevel": "warning"
  },
  "inbounds": [
    {
      "tag": "proxy",
      "port": 10808,
      "listen": "127.0.0.1",
      "protocol": "socks",
      "sniffing": {
        "enabled": false,
        "destOverride": [
          "http",
          "tls"
        ]
      },
      "settings": {
        "auth": "noauth",
        "udp": false,
        "ip": null,
        "address": null,
        "clients": null,
        "decryption": null
      },
      "streamSettings": null
    }
  ],
  "outbounds": [
    {
      "tag": "proxy",
      "protocol": "vmess",
      "settings": {
        "vnext": [
          {
            "address": "107.148.200.169",
            "port": 39806,
            "users": [
              {
                "id": "efe649d4-fe0c-11ea-aba4-00163c7e2fa2",
                "alterId": 16,
                "email": "t@t.tt",
                "security": "auto",
                "encryption": null
              }
            ]
          }
        ],
        "servers": null,
        "response": null
      },
      "streamSettings": {
        "network": "tcp",
        "security": null,
        "tlsSettings": null,
        "tcpSettings": null,
        "kcpSettings": null,
        "wsSettings": null,
        "httpSettings": null,
        "quicSettings": null
      },
      "mux": {
        "enabled": true,
        "concurrency": 8
      }
    },
    {
      "tag": "direct",
      "protocol": "freedom",
      "settings": {
        "vnext": null,
        "servers": null,
        "response": null
      },
      "streamSettings": null,
      "mux": null
    },
    {
      "tag": "block",
      "protocol": "blackhole",
      "settings": {
        "vnext": null,
        "servers": null,
        "response": {
          "type": "http"
        }
      },
      "streamSettings": null,
      "mux": null
    }
  ],
  "stats": null,
  "api": null,
  "dns": null,
  "routing": {
    "domainStrategy": "IPIfNonMatch",
    "rules": [
      {
        "type": "field",
        "port": null,
        "inboundTag": [
          "api"
        ],
        "outboundTag": "api",
        "ip": null,
        "domain": null
      }
    ]
  }
}